{
    "columns": [
    {
        "key": "Num",
        "label": "Number",
        "type": "Number"
    },
    {
        "key": "Picture",
        "label": "Picture",
        "type": "Image"
    },
    {
        "key": "Name",
        "label": "Name",
        "type": "String"
    },
    {
        "key": "Pos",
        "label": "Position",
        "type": "String"
    },
    {
        "key": "Height",
        "label": "Height",
        "type": "String"
    },
    {
        "key": "Weight",
        "label": "Weight",
        "type": "Number"
    },
    {
        "key": "Birthday",
        "label": "Birthday",
        "type": "String"
    },
    {
        "key": "Years",
        "label": "Years",
        "type": "Number"
    }
],
    "items": [
    {
        "Num": 13,
        "Picture": "http:\/\/stats.nba.com\/media\/players\/230x185\/202327.png",
        "Name": "Ekpe Udoh",
        "Pos": "PF",
        "Height": "6-10",
        "Weight": 240,
        "Birthday": "05\/20\/1987",
        "Years": "4"
    },
    {
        "Num": 0,
        "Picture": "http:\/\/stats.nba.com\/media\/players\/230x185\/201175.png",
        "Name": "Glen Davis",
        "Pos": "PF",
        "Height": "6-9",
        "Weight": 289,
        "Birthday": "01\/01\/1986",
        "Years": "7"
    },
    {
        "Num": 15,
        "Picture": "http:\/\/stats.nba.com\/media\/players\/230x185\/2045.png",
        "Name": "Hedo Turkoglu",
        "Pos": "SF",
        "Height": "6-10",
        "Weight": 220,
        "Birthday": "03\/19\/1979",
        "Years": "14"
    },
    {
        "Num": 4,
        "Picture": "http:\/\/stats.nba.com\/media\/players\/230x185\/200755.png",
        "Name": "J.J. Redick",
        "Pos": "SG",
        "Height": "6-4",
        "Weight": 190,
        "Birthday": "06\/24\/1984",
        "Years": "8"
    },
    {
        "Num": 11,
        "Picture": "http:\/\/stats.nba.com\/media\/players\/230x185\/2037.png",
        "Name": "Jamal Crawford",
        "Pos": "G",
        "Height": "6-5",
        "Weight": 200,
        "Birthday": "03\/20\/1980",
        "Years": "14"
    },
    {
        "Num": 13,
        "Picture": "http:\/\/stats.nba.com\/media\/players\/230x185\/202327.png",
        "Name": "Ekpe Udoh",
        "Pos": "PF",
        "Height": "6-10",
        "Weight": 240,
        "Birthday": "05\/20\/1987",
        "Years": "4"
    },
    {
        "Num": 0,
        "Picture": "http:\/\/stats.nba.com\/media\/players\/230x185\/201175.png",
        "Name": "Glen Davis",
        "Pos": "PF",
        "Height": "6-9",
        "Weight": 289,
        "Birthday": "01\/01\/1986",
        "Years": "7"
    },
    {
        "Num": 15,
        "Picture": "http:\/\/stats.nba.com\/media\/players\/230x185\/2045.png",
        "Name": "Hedo Turkoglu",
        "Pos": "SF",
        "Height": "6-10",
        "Weight": 220,
        "Birthday": "03\/19\/1979",
        "Years": "14"
    },
    {
        "Num": 4,
        "Picture": "http:\/\/stats.nba.com\/media\/players\/230x185\/200755.png",
        "Name": "J.J. Redick",
        "Pos": "SG",
        "Height": "6-4",
        "Weight": 190,
        "Birthday": "06\/24\/1984",
        "Years": "8"
    },
    {
        "Num": 11,
        "Picture": "http:\/\/stats.nba.com\/media\/players\/230x185\/2037.png",
        "Name": "Jamal Crawford",
        "Pos": "G",
        "Height": "6-5",
        "Weight": 200,
        "Birthday": "03\/20\/1980",
        "Years": "14"
    }
],
    "paginate": {
    "page": 2,
    "pages": 3,
    "offset": 5,
    "row_count": 5,
    "total": 15,
    "col_name": "Name",
    "direction": "asc"
}
}

